_sw_def_radio/src/zzz_core0_window0.vcd
$comment
Copyright (C) 2015-2022 Gowin Semiconductor Corporation.
$end
$date
  11/11/2024 17:44:47
$end
$timescale
  1 ps
$end
$scope
module top
$end
$var
reg 1 ! mclk
$end
$var
reg 1 " sinw[16]
$end
$var
reg 1 # sinw[15]
$end
$var
reg 1 $ sinw[14]
$end
$var
reg 1 % sinw[13]
$end
$var
reg 1 & sinw[12]
$end
$var
reg 1 ' sinw[11]
$end
$var
reg 1 ( sinw[10]
$end
$var
reg 1 ) sinw[9]
$end
$var
reg 1 * sinw[8]
$end
$var
reg 1 + sinw[7]
$end
$var
reg 1 , sinw[6]
$end
$var
reg 1 - sinw[5]
$end
$var
reg 1 . sinw[4]
$end
$var
reg 1 / sinw[3]
$end
$var
reg 1 0 sinw[2]
$end
$var
reg 1 1 sinw[1]
$end
$var
reg 1 2 sinw[0]
$end
$var
reg 1 3 cosw[16]
$end
$var
reg 1 4 cosw[15]
$end
$var
reg 1 5 cosw[14]
$end
$var
reg 1 6 cosw[13]
$end
$var
reg 1 7 cosw[12]
$end
$var
reg 1 8 cosw[11]
$end
$var
reg 1 9 cosw[10]
$end
$var
reg 1 : cosw[9]
$end
$var
reg 1 ; cosw[8]
$end
$var
reg 1 < cosw[7]
$end
$var
reg 1 = cosw[6]
$end
$var
reg 1 > cosw[5]
$end
$var
reg 1 ? cosw[4]
$end
$var
reg 1 @ cosw[3]
$end
$var
reg 1 A cosw[2]
$end
$var
reg 1 B cosw[1]
$end
$var
reg 1 C cosw[0]
$end
$upscope
$end
$enddefinitions
$end
#0
$dumpvars
0!
X"
X#
X$
X%
X&
X'
X(
X)
X*
X+
X,
X-
X.
X/
X0
X1
X2
X3
X4
X5
X6
X7
X8
X9
X:
X;
X<
X=
X>
X?
X@
XA
XB
XC
$end
#10000
$comment Sample 0 (Start) $end
$comment Sample 0 (Trigger) $end
1!
0"
0#
1$
1%
1&
1'
0(
1)
1*
1+
0,
0-
1.
0/
00
01
02
03
04
05
16
07
08
09
0:
1;
0<
1=
0>
1?
1@
1A
1B
0C
#20000
0!

#30000
1!
0&
1(
0+
1,
1-
0.
10
11
12
17
18
19
1:
0=
0?
0@
1C
#40000
0!

#50000
1!
0%
1&
0)
0*
0,
1.
1/
00
01
15
06
09
0:
0;
1<
1=
0A
#60000
0!

#70000
1!
0&
0'
0(
1)
1*
1,
0-
0.
0/
16
07
19
1>
1A
0C
#80000
0!

#90000
1!
0$
1%
1(
0*
0,
1/
10
11
02
17
09
1:
0<
0=
1?
1C
#100000
0!

#110000
1!
0%
1,
1-
1.
01
12
19
1;
1<
1=
0>
0B
0C
#120000
0!

#130000
1!
1"
1#
1$
1%
1+
0,
0-
0.
0/
00
11
02
0:
0<
1>
0A
1C
#140000
0!

#150000
1!
0%
1'
0(
0)
0+
1.
08
09
1:
0=
0?
#160000
0!

#170000
1!
0$
1%
1(
1*
1-
10
12
07
0:
1<
0>
1?
1@
1A
1B
0C
#180000
0!

#190000
1!
0%
1&
0'
1)
1+
0-
0.
1/
00
06
18
1=
1>
0A
0B
#200000
0!

#210000
1!
0&
1'
0(
0)
0*
0+
1,
1-
10
02
05
16
19
0=
0?
1B
#220000
0!

#230000
1!
0'
1+
0-
1.
0/
06
1:
0;
0>
0@
0B
#240000
0!

#250000
1!
1*
0+
0,
1-
13
14
15
16
0<
1=
1>
1@
1C
#260000
0!

#270000
1!
1'
1+
0-
12
06
1;
1A
0C
#280000
0!

#290000
1!
1&
0+
1,
1-
0.
00
05
16
17
08
09
1<
0=
0>
0@
0A
1C
#300000
0!

#310000
1!
1%
0&
1(
1)
1+
0,
10
01
02
06
18
19
0:
0;
0<
1=
1>
#320000
0!

#330000
1!
1$
0%
0(
0*
1,
1/
07
09
1:
1;
1<
0=
0>
1@
0C
#340000
0!

#350000
1!
1%
0)
1*
0,
0-
11
12
08
0:
1=
1>
1?
1A
#360000
0!

#370000
1!
0"
0#
0$
0%
1.
0/
0;
0<
0>
0A
1C
#380000
0!

#390000
1!
1%
0+
0.
1/
01
19
1:
1<
0?
0@
1A
1B
0C
#400000
0!

#410000
1!
1$
0%
0'
1(
1+
1,
1-
0/
11
02
17
0:
1@
0A
0B
#420000
0!

#430000
1!
1&
1'
1)
0*
0+
0-
1.
1/
00
12
16
07
18
09
1;
0=
0@
1B
#440000
0!

#450000
1!
1%
0'
0(
0)
1+
1-
0.
01
02
15
06
08
1:
1>
1?
1A
#460000
0!

#470000
1!
1'
1(
0+
0-
1.
10
12
16
0:
0A
#480000
0!

#490000
1!
1#
0$
0%
0&
0'
0(
0,
0.
0/
00
02
03
04
05
06
0>
0B
1C
#500000
0!

#510000
1!
0#
1$
1%
1&
1'
1)
1*
1+
1.
16
0<
1=
1@
1A
1B
0C
#520000
0!

#530000
1!
0&
1(
0+
1,
1-
0.
10
11
12
17
18
19
1:
0=
0?
0@
1C
#540000
0!

#550000
1!
0%
1&
0)
0*
0,
1.
1/
00
01
15
06
09
0:
0;
1<
1=
0A
#560000
0!

#570000
1!
0&
0'
0(
1)
1*
1,
0-
0.
0/
16
07
19
1>
1A
0C
#580000
0!

#590000
1!
0$
1%
1(
0*
0,
1/
10
11
02
17
09
1:
0<
0=
1?
1C
#600000
0!

#610000
1!
0%
1,
1-
1.
01
12
19
1;
1<
1=
0>
0B
0C
#620000
0!

#630000
1!
1"
1#
1$
1%
1+
0,
0-
0.
0/
00
11
02
0:
0<
1>
0A
1C
#640000
0!

#650000
1!
0%
1'
0(
0)
0+
1.
08
09
1:
0=
0?
#660000
0!

#670000
1!
0$
1%
1(
1*
1-
10
12
07
0:
1<
0>
1?
1@
1A
1B
0C
#680000
0!

#690000
1!
0%
1&
0'
1)
1+
0-
0.
1/
00
06
18
1=
1>
0A
0B
#700000
0!

#710000
1!
0&
1'
0(
0)
0*
0+
1,
1-
10
02
05
16
19
0=
0?
1B
#720000
0!

#730000
1!
0'
1+
0-
1.
0/
06
1:
0;
0>
0@
0B
#740000
0!

#750000
1!
1*
0+
0,
1-
13
14
15
16
0<
1=
1>
1@
1C
#760000
0!

#770000
1!
1'
1+
0-
12
06
1;
1A
0C
#780000
0!

#790000
1!
1&
0+
1,
1-
0.
00
05
16
17
08
09
1<
0=
0>
0@
0A
1C
#800000
0!

#810000
1!
1%
0&
1(
1)
1+
0,
10
01
02
06
18
19
0:
0;
0<
1=
1>
#820000
0!

#830000
1!
1$
0%
0(
0*
1,
1/
07
09
1:
1;
1<
0=
0>
1@
0C
#840000
0!

#850000
1!
1%
0)
1*
0,
0-
11
12
08
0:
1=
1>
1?
1A
#860000
0!

#870000
1!
0"
0#
0$
0%
1.
0/
0;
0<
0>
0A
1C
#880000
0!

#890000
1!
1%
0+
0.
1/
01
19
1:
1<
0?
0@
1A
1B
0C
#900000
0!

#910000
1!
1$
0%
0'
1(
1+
1,
1-
0/
11
02
17
0:
1@
0A
0B
#920000
0!

#930000
1!
1&
1'
1)
0*
0+
0-
1.
1/
00
12
16
07
18
09
1;
0=
0@
1B
#940000
0!

#950000
1!
1%
0'
0(
0)
1+
1-
0.
01
02
15
06
08
1:
1>
1?
1A
#960000
0!

#970000
1!
1'
1(
0+
0-
1.
10
12
16
0:
0A
#980000
0!

#990000
1!
1#
0$
0%
0&
0'
0(
0,
0.
0/
00
02
03
04
05
06
0>
0B
1C
#1000000
0!

#1010000
1!
0#
1$
1%
1&
1'
1)
1*
1+
1.
16
0<
1=
1@
1A
1B
0C
#1020000
0!

#1030000
1!
0&
1(
0+
1,
1-
0.
10
11
12
17
18
19
1:
0=
0?
0@
1C
#1040000
0!

#1050000
1!
0%
1&
0)
0*
0,
1.
1/
00
01
15
06
09
0:
0;
1<
1=
0A
#1060000
0!

#1070000
1!
0&
0'
0(
1)
1*
1,
0-
0.
0/
16
07
19
1>
1A
0C
#1080000
0!

#1090000
1!
0$
1%
1(
0*
0,
1/
10
11
02
17
09
1:
0<
0=
1?
1C
#1100000
0!

#1110000
1!
0%
1,
1-
1.
01
12
19
1;
1<
1=
0>
0B
0C
#1120000
0!

#1130000
1!
1"
1#
1$
1%
1+
0,
0-
0.
0/
00
11
02
0:
0<
1>
0A
1C
#1140000
0!

#1150000
1!
0%
1'
0(
0)
0+
1.
08
09
1:
0=
0?
#1160000
0!

#1170000
1!
0$
1%
1(
1*
1-
10
12
07
0:
1<
0>
1?
1@
1A
1B
0C
#1180000
0!

#1190000
1!
0%
1&
0'
1)
1+
0-
0.
1/
00
06
18
1=
1>
0A
0B
#1200000
0!

#1210000
1!
0&
1'
0(
0)
0*
0+
1,
1-
10
02
05
16
19
0=
0?
1B
#1220000
0!

#1230000
1!
0'
1+
0-
1.
0/
06
1:
0;
0>
0@
0B
#1240000
0!

#1250000
1!
1*
0+
0,
1-
13
14
15
16
0<
1=
1>
1@
1C
#1260000
0!

#1270000
1!
1'
1+
0-
12
06
1;
1A
0C
#1280000
0!

#1290000
1!
1&
0+
1,
1-
0.
00
05
16
17
08
09
1<
0=
0>
0@
0A
1C
#1300000
0!

#1310000
1!
1%
0&
1(
1)
1+
0,
10
01
02
06
18
19
0:
0;
0<
1=
1>
#1320000
0!

#1330000
1!
1$
0%
0(
0*
1,
1/
07
09
1:
1;
1<
0=
0>
1@
0C
#1340000
0!

#1350000
1!
1%
0)
1*
0,
0-
11
12
08
0:
1=
1>
1?
1A
#1360000
0!

#1370000
1!
0"
0#
0$
0%
1.
0/
0;
0<
0>
0A
1C
#1380000
0!

#1390000
1!
1%
0+
0.
1/
01
19
1:
1<
0?
0@
1A
1B
0C
#1400000
0!

#1410000
1!
1$
0%
0'
1(
1+
1,
1-
0/
11
02
17
0:
1@
0A
0B
#1420000
0!

#1430000
1!
1&
1'
1)
0*
0+
0-
1.
1/
00
12
16
07
18
09
1;
0=
0@
1B
#1440000
0!

#1450000
1!
1%
0'
0(
0)
1+
1-
0.
01
02
15
06
08
1:
1>
1?
1A
#1460000
0!

#1470000
1!
1'
1(
0+
0-
1.
10
12
16
0:
0A
#1480000
0!

#1490000
1!
1#
0$
0%
0&
0'
0(
0,
0.
0/
00
02
03
04
05
06
0>
0B
1C
#1500000
0!

#1510000
1!
0#
1$
1%
1&
1'
1)
1*
1+
1.
16
0<
1=
1@
1A
1B
0C
#1520000
0!

#1530000
1!
0&
1(
0+
1,
1-
0.
10
11
12
17
18
19
1:
0=
0?
0@
1C
#1540000
0!

#1550000
1!
0%
1&
0)
0*
0,
1.
1/
00
01
15
06
09
0:
0;
1<
1=
0A
#1560000
0!

#1570000
1!
0&
0'
0(
1)
1*
1,
0-
0.
0/
16
07
19
1>
1A
0C
#1580000
0!

#1590000
1!
0$
1%
1(
0*
0,
1/
10
11
02
17
09
1:
0<
0=
1?
1C
#1600000
0!

#1610000
1!
0%
1,
1-
1.
01
12
19
1;
1<
1=
0>
0B
0C
#1620000
0!

#1630000
1!
1"
1#
1$
1%
1+
0,
0-
0.
0/
00
11
02
0:
0<
1>
0A
1C
#1640000
0!

#1650000
1!
0%
1'
0(
0)
0+
1.
08
09
1:
0=
0?
#1660000
0!

#1670000
1!
0$
1%
1(
1*
1-
10
12
07
0:
1<
0>
1?
1@
1A
1B
0C
#1680000
0!

#1690000
1!
0%
1&
0'
1)
1+
0-
0.
1/
00
06
18
1=
1>
0A
0B
#1700000
0!

#1710000
1!
0&
1'
0(
0)
0*
0+
1,
1-
10
02
05
16
19
0=
0?
1B
#1720000
0!

#1730000
1!
0'
1+
0-
1.
0/
06
1:
0;
0>
0@
0B
#1740000
0!

#1750000
1!
1*
0+
0,
1-
13
14
15
16
0<
1=
1>
1@
1C
#1760000
0!

#1770000
1!
1'
1+
0-
12
06
1;
1A
0C
#1780000
0!

#1790000
1!
1&
0+
1,
1-
0.
00
05
16
17
08
09
1<
0=
0>
0@
0A
1C
#1800000
0!

#1810000
1!
1%
0&
1(
1)
1+
0,
10
01
02
06
18
19
0:
0;
0<
1=
1>
#1820000
0!

#1830000
1!
1$
0%
0(
0*
1,
1/
07
09
1:
1;
1<
0=
0>
1@
0C
#1840000
0!

#1850000
1!
1%
0)
1*
0,
0-
11
12
08
0:
1=
1>
1?
1A
#1860000
0!

#1870000
1!
0"
0#
0$
0%
1.
0/
0;
0<
0>
0A
1C
#1880000
0!

#1890000
1!
1%
0+
0.
1/
01
19
1:
1<
0?
0@
1A
1B
0C
#1900000
0!

#1910000
1!
1$
0%
0'
1(
1+
1,
1-
0/
11
02
17
0:
1@
0A
0B
#1920000
0!

#1930000
1!
1&
1'
1)
0*
0+
0-
1.
1/
00
12
16
07
18
09
1;
0=
0@
1B
#1940000
0!

#1950000
1!
1%
0'
0(
0)
1+
1-
0.
01
02
15
06
08
1:
1>
1?
1A
#1960000
0!

#1970000
1!
1'
1(
0+
0-
1.
10
12
16
0:
0A
#1980000
0!

#1990000
1!
1#
0$
0%
0&
0'
0(
0,
0.
0/
00
02
03
04
05
06
0>
0B
1C
#2000000
0!

#2010000
1!
0#
1$
1%
1&
1'
1)
1*
1+
1.
16
0<
1=
1@
1A
1B
0C
#2020000
0!

#2030000
1!
0&
1(
0+
1,
1-
0.
10
11
12
17
18
19
1:
0=
0?
0@
1C
#2040000
0!

#2050000
1!
0%
1&
0)
0*
0,
1.
1/
00
01
15
06
09
0:
0;
1<
1=
0A
#2060000
0!

#2070000
1!
0&
0'
0(
1)
1*
1,
0-
0.
0/
16
07
19
1>
1A
0C
#2080000
0!

#2090000
1!
0$
1%
1(
0*
0,
1/
10
11
02
17
09
1:
0<
0=
1?
1C
#2100000
0!

#2110000
1!
0%
1,
1-
1.
01
12
19
1;
1<
1=
0>
0B
0C
#2120000
0!

#2130000
1!
1"
1#
1$
1%
1+
0,
0-
0.
0/
00
11
02
0:
0<
1>
0A
1C
#2140000
0!

#2150000
1!
0%
1'
0(
0)
0+
1.
08
09
1:
0=
0?
#2160000
0!

#2170000
1!
0$
1%
1(
1*
1-
10
12
07
0:
1<
0>
1?
1@
1A
1B
0C
#2180000
0!

#2190000
1!
0%
1&
0'
1)
1+
0-
0.
1/
00
06
18
1=
1>
0A
0B
#2200000
0!

#2210000
1!
0&
1'
0(
0)
0*
0+
1,
1-
10
02
05
16
19
0=
0?
1B
#2220000
0!

#2230000
1!
0'
1+
0-
1.
0/
06
1:
0;
0>
0@
0B
#2240000
0!

#2250000
1!
1*
0+
0,
1-
13
14
15
16
0<
1=
1>
1@
1C
#2260000
0!

#2270000
1!
1'
1+
0-
12
06
1;
1A
0C
#2280000
0!

#2290000
1!
1&
0+
1,
1-
0.
00
05
16
17
08
09
1<
0=
0>
0@
0A
1C
#2300000
0!

#2310000
1!
1%
0&
1(
1)
1+
0,
10
01
02
06
18
19
0:
0;
0<
1=
1>
#2320000
0!

#2330000
1!
1$
0%
0(
0*
1,
1/
07
09
1:
1;
1<
0=
0>
1@
0C
#2340000
0!

#2350000
1!
1%
0)
1*
0,
0-
11
12
08
0:
1=
1>
1?
1A
#2360000
0!

#2370000
1!
0"
0#
0$
0%
1.
0/
0;
0<
0>
0A
1C
#2380000
0!

#2390000
1!
1%
0+
0.
1/
01
19
1:
1<
0?
0@
1A
1B
0C
#2400000
0!

#2410000
1!
1$
0%
0'
1(
1+
1,
1-
0/
11
02
17
0:
1@
0A
0B
#2420000
0!

#2430000
1!
1&
1'
1)
0*
0+
0-
1.
1/
00
12
16
07
18
09
1;
0=
0@
1B
#2440000
0!

#2450000
1!
1%
0'
0(
0)
1+
1-
0.
01
02
15
06
08
1:
1>
1?
1A
#2460000
0!

#2470000
1!
1'
1(
0+
0-
1.
10
12
16
0:
0A
#2480000
0!

#2490000
1!
1#
0$
0%
0&
0'
0(
0,
0.
0/
00
02
03
04
05
06
0>
0B
1C
#2500000
0!

#2510000
1!
0#
1$
1%
1&
1'
1)
1*
1+
1.
16
0<
1=
1@
1A
1B
0C
#2520000
0!

#2530000
1!
0&
1(
0+
1,
1-
0.
10
11
12
17
18
19
1:
0=
0?
0@
1C
#2540000
0!

#2550000
1!
0%
1&
0)
0*
0,
1.
1/
00
01
15
06
09
0:
0;
1<
1=
0A
#2560000
0!

#2570000
1!
0&
0'
0(
1)
1*
1,
0-
0.
0/
16
07
19
1>
1A
0C
#2580000
0!

#2590000
1!
0$
1%
1(
0*
0,
1/
10
11
02
17
09
1:
0<
0=
1?
1C
#2600000
0!

#2610000
1!
0%
1,
1-
1.
01
12
19
1;
1<
1=
0>
0B
0C
#2620000
0!

#2630000
1!
1"
1#
1$
1%
1+
0,
0-
0.
0/
00
11
02
0:
0<
1>
0A
1C
#2640000
0!

#2650000
1!
0%
1'
0(
0)
0+
1.
08
09
1:
0=
0?
#2660000
0!

#2670000
1!
0$
1%
1(
1*
1-
10
12
07
0:
1<
0>
1?
1@
1A
1B
0C
#2680000
0!

#2690000
1!
0%
1&
0'
1)
1+
0-
0.
1/
00
06
18
1=
1>
0A
0B
#2700000
0!

#2710000
1!
0&
1'
0(
0)
0*
0+
1,
1-
10
02
05
16
19
0=
0?
1B
#2720000
0!

#2730000
1!
0'
1+
0-
1.
0/
06
1:
0;
0>
0@
0B
#2740000
0!

#2750000
1!
1*
0+
0,
1-
13
14
15
16
0<
1=
1>
1@
1C
#2760000
0!

#2770000
1!
1'
1+
0-
12
06
1;
1A
0C
#2780000
0!

#2790000
1!
1&
0+
1,
1-
0.
00
05
16
17
08
09
1<
0=
0>
0@
0A
1C
#2800000
0!

#2810000
1!
1%
0&
1(
1)
1+
0,
10
01
02
06
18
19
0:
0;
0<
1=
1>
#2820000
0!

#2830000
1!
1$
0%
0(
0*
1,
1/
07
09
1:
1;
1<
0=
0>
1@
0C
#2840000
0!

#2850000
1!
1%
0)
1*
0,
0-
11
12
08
0:
1=
1>
1?
1A
#2860000
0!

#2870000
1!
0"
0#
0$
0%
1.
0/
0;
0<
0>
0A
1C
#2880000
0!

#2890000
1!
1%
0+
0.
1/
01
19
1:
1<
0?
0@
1A
1B
0C
#2900000
0!

#2910000
1!
1$
0%
0'
1(
1+
1,
1-
0/
11
02
17
0:
1@
0A
0B
#2920000
0!

#2930000
1!
1&
1'
1)
0*
0+
0-
1.
1/
00
12
16
07
18
09
1;
0=
0@
1B
#2940000
0!

#2950000
1!
1%
0'
0(
0)
1+
1-
0.
01
02
15
06
08
1:
1>
1?
1A
#2960000
0!

#2970000
1!
1'
1(
0+
0-
1.
10
12
16
0:
0A
#2980000
0!

#2990000
1!
1#
0$
0%
0&
0'
0(
0,
0.
0/
00
02
03
04
05
06
0>
0B
1C
#3000000
0!

#3010000
1!
0#
1$
1%
1&
1'
1)
1*
1+
1.
16
0<
1=
1@
1A
1B
0C
#3020000
0!

#3030000
1!
0&
1(
0+
1,
1-
0.
10
11
12
17
18
19
1:
0=
0?
0@
1C
#3040000
0!

#3050000
1!
0%
1&
0)
0*
0,
1.
1/
00
01
15
06
09
0:
0;
1<
1=
0A
#3060000
0!

#3070000
1!
0&
0'
0(
1)
1*
1,
0-
0.
0/
16
07
19
1>
1A
0C
#3080000
0!

#3090000
1!
0$
1%
1(
0*
0,
1/
10
11
02
17
09
1:
0<
0=
1?
1C
#3100000
0!

#3110000
1!
0%
1,
1-
1.
01
12
19
1;
1<
1=
0>
0B
0C
#3120000
0!

#3130000
1!
1"
1#
1$
1%
1+
0,
0-
0.
0/
00
11
02
0:
0<
1>
0A
1C
#3140000
0!

#3150000
1!
0%
1'
0(
0)
0+
1.
08
09
1:
0=
0?
#3160000
0!

#3170000
1!
0$
1%
1(
1*
1-
10
12
07
0:
1<
0>
1?
1@
1A
1B
0C
#3180000
0!

#3190000
1!
0%
1&
0'
1)
1+
0-
0.
1/
00
06
18
1=
1>
0A
0B
#3200000
0!

#3210000
1!
0&
1'
0(
0)
0*
0+
1,
1-
10
02
05
16
19
0=
0?
1B
#3220000
0!

#3230000
1!
0'
1+
0-
1.
0/
06
1:
0;
0>
0@
0B
#3240000
0!

#3250000
1!
1*
0+
0,
1-
13
14
15
16
0<
1=
1>
1@
1C
#3260000
0!

#3270000
1!
1'
1+
0-
12
06
1;
1A
0C
#3280000
0!

#3290000
1!
1&
0+
1,
1-
0.
00
05
16
17
08
09
1<
0=
0>
0@
0A
1C
#3300000
0!

#3310000
1!
1%
0&
1(
1)
1+
0,
10
01
02
06
18
19
0:
0;
0<
1=
1>
#3320000
0!

#3330000
1!
1$
0%
0(
0*
1,
1/
07
09
1:
1;
1<
0=
0>
1@
0C
#3340000
0!

#3350000
1!
1%
0)
1*
0,
0-
11
12
08
0:
1=
1>
1?
1A
#3360000
0!

#3370000
1!
0"
0#
0$
0%
1.
0/
0;
0<
0>
0A
1C
#3380000
0!

#3390000
1!
1%
0+
0.
1/
01
19
1:
1<
0?
0@
1A
1B
0C
#3400000
0!

#3410000
1!
1$
0%
0'
1(
1+
1,
1-
0/
11
02
17
0:
1@
0A
0B
#3420000
0!

#3430000
1!
1&
1'
1)
0*
0+
0-
1.
1/
00
12
16
07
18
09
1;
0=
0@
1B
#3440000
0!

#3450000
1!
1%
0'
0(
0)
1+
1-
0.
01
02
15
06
08
1:
1>
1?
1A
#3460000
0!

#3470000
1!
1'
1(
0+
0-
1.
10
12
16
0:
0A
#3480000
0!

#3490000
1!
1#
0$
0%
0&
0'
0(
0,
0.
0/
00
02
03
04
05
06
0>
0B
1C
#3500000
0!

#3510000
1!
0#
1$
1%
1&
1'
1)
1*
1+
1.
16
0<
1=
1@
1A
1B
0C
#3520000
0!

#3530000
1!
0&
1(
0+
1,
1-
0.
10
11
12
17
18
19
1:
0=
0?
0@
1C
#3540000
0!

#3550000
1!
0%
1&
0)
0*
0,
1.
1/
00
01
15
06
09
0:
0;
1<
1=
0A
#3560000
0!

#3570000
1!
0&
0'
0(
1)
1*
1,
0-
0.
0/
16
07
19
1>
1A
0C
#3580000
0!

#3590000
1!
0$
1%
1(
0*
0,
1/
10
11
02
17
09
1:
0<
0=
1?
1C
#3600000
0!

#3610000
1!
0%
1,
1-
1.
01
12
19
1;
1<
1=
0>
0B
0C
#3620000
0!

#3630000
1!
1"
1#
1$
1%
1+
0,
0-
0.
0/
00
11
02
0:
0<
1>
0A
1C
#3640000
0!

#3650000
1!
0%
1'
0(
0)
0+
1.
08
09
1:
0=
0?
#3660000
0!

#3670000
1!
0$
1%
1(
1*
1-
10
12
07
0:
1<
0>
1?
1@
1A
1B
0C
#3680000
0!

#3690000
1!
0%
1&
0'
1)
1+
0-
0.
1/
00
06
18
1=
1>
0A
0B
#3700000
0!

#3710000
1!
0&
1'
0(
0)
0*
0+
1,
1-
10
02
05
16
19
0=
0?
1B
#3720000
0!

#3730000
1!
0'
1+
0-
1.
0/
06
1:
0;
0>
0@
0B
#3740000
0!

#3750000
1!
1*
0+
0,
1-
13
14
15
16
0<
1=
1>
1@
1C
#3760000
0!

#3770000
1!
1'
1+
0-
12
06
1;
1A
0C
#3780000
0!

#3790000
1!
1&
0+
1,
1-
0.
00
05
16
17
08
09
1<
0=
0>
0@
0A
1C
#3800000
0!

#3810000
1!
1%
0&
1(
1)
1+
0,
10
01
02
06
18
19
0:
0;
0<
1=
1>
#3820000
0!

#3830000
1!
1$
0%
0(
0*
1,
1/
07
09
1:
1;
1<
0=
0>
1@
0C
#3840000
0!

#3850000
1!
1%
0)
1*
0,
0-
11
12
08
0:
1=
1>
1?
1A
#3860000
0!

#3870000
1!
0"
0#
0$
0%
1.
0/
0;
0<
0>
0A
1C
#3880000
0!

#3890000
1!
1%
0+
0.
1/
01
19
1:
1<
0?
0@
1A
1B
0C
#3900000
0!

#3910000
1!
1$
0%
0'
1(
1+
1,
1-
0/
11
02
17
0:
1@
0A
0B
#3920000
0!

#3930000
1!
1&
1'
1)
0*
0+
0-
1.
1/
00
12
16
07
18
09
1;
0=
0@
1B
#3940000
0!

#3950000
1!
1%
0'
0(
0)
1+
1-
0.
01
02
15
06
08
1:
1>
1?
1A
#3960000
0!

#3970000
1!
1'
1(
0+
0-
1.
10
12
16
0:
0A
#3980000
0!

#3990000
1!
1#
0$
0%
0&
0'
0(
0,
0.
0/
00
02
03
04
05
06
0>
0B
1C
#4000000
0!

#4010000
1!
0#
1$
1%
1&
1'
1)
1*
1+
1.
16
0<
1=
1@
1A
1B
0C
#4020000
0!

#4030000
1!
0&
1(
0+
1,
1-
0.
10
11
12
17
18
19
1:
0=
0?
0@
1C
#4040000
0!

#4050000
1!
0%
1&
0)
0*
0,
1.
1/
00
01
15
06
09
0:
0;
1<
1=
0A
#4060000
0!

#4070000
1!
0&
0'
0(
1)
1*
1,
0-
0.
0/
16
07
19
1>
1A
0C
#4080000
0!

#4090000
1!
0$
1%
1(
0*
0,
1/
10
11
02
17
09
1:
0<
0=
1?
1C
#4100000
0!

#4110000
1!
0%
1,
1-
1.
01
12
19
1;
1<
1=
0>
0B
0C
#4120000
0!

#4130000
1!
1"
1#
1$
1%
1+
0,
0-
0.
0/
00
11
02
0:
0<
1>
0A
1C
#4140000
0!

#4150000
1!
0%
1'
0(
0)
0+
1.
08
09
1:
0=
0?
#4160000
0!

#4170000
1!
0$
1%
1(
1*
1-
10
12
07
0:
1<
0>
1?
1@
1A
1B
0C
#4180000
0!

#4190000
1!
0%
1&
0'
1)
1+
0-
0.
1/
00
06
18
1=
1>
0A
0B
#4200000
0!

#4210000
1!
0&
1'
0(
0)
0*
0+
1,
1-
10
02
05
16
19
0=
0?
1B
#4220000
0!

#4230000
1!
0'
1+
0-
1.
0/
06
1:
0;
0>
0@
0B
#4240000
0!

#4250000
1!
1*
0+
0,
1-
13
14
15
16
0<
1=
1>
1@
1C
#4260000
0!

#4270000
1!
1'
1+
0-
12
06
1;
1A
0C
#4280000
0!

#4290000
1!
1&
0+
1,
1-
0.
00
05
16
17
08
09
1<
0=
0>
0@
0A
1C
#4300000
0!

#4310000
1!
1%
0&
1(
1)
1+
0,
10
01
02
06
18
19
0:
0;
0<
1=
1>
#4320000
0!

#4330000
1!
1$
0%
0(
0*
1,
1/
07
09
1:
1;
1<
0=
0>
1@
0C
#4340000
0!

#4350000
1!
1%
0)
1*
0,
0-
11
12
08
0:
1=
1>
1?
1A
#4360000
0!

#4370000
1!
0"
0#
0$
0%
1.
0/
0;
0<
0>
0A
1C
#4380000
0!

#4390000
1!
1%
0+
0.
1/
01
19
1:
1<
0?
0@
1A
1B
0C
#4400000
0!

#4410000
1!
1$
0%
0'
1(
1+
1,
1-
0/
11
02
17
0:
1@
0A
0B
#4420000
0!

#4430000
1!
1&
1'
1)
0*
0+
0-
1.
1/
00
12
16
07
18
09
1;
0=
0@
1B
#4440000
0!

#4450000
1!
1%
0'
0(
0)
1+
1-
0.
01
02
15
06
08
1:
1>
1?
1A
#4460000
0!

#4470000
1!
1'
1(
0+
0-
1.
10
12
16
0:
0A
#4480000
0!

#4490000
1!
1#
0$
0%
0&
0'
0(
0,
0.
0/
00
02
03
04
05
06
0>
0B
1C
#4500000
0!

#4510000
1!
0#
1$
1%
1&
1'
1)
1*
1+
1.
16
0<
1=
1@
1A
1B
0C
#4520000
0!

#4530000
1!
0&
1(
0+
1,
1-
0.
10
11
12
17
18
19
1:
0=
0?
0@
1C
#4540000
0!

#4550000
1!
0%
1&
0)
0*
0,
1.
1/
00
01
15
06
09
0:
0;
1<
1=
0A
#4560000
0!

#4570000
1!
0&
0'
0(
1)
1*
1,
0-
0.
0/
16
07
19
1>
1A
0C
#4580000
0!

#4590000
1!
0$
1%
1(
0*
0,
1/
10
11
02
17
09
1:
0<
0=
1?
1C
#4600000
0!

#4610000
1!
0%
1,
1-
1.
01
12
19
1;
1<
1=
0>
0B
0C
#4620000
0!

#4630000
1!
1"
1#
1$
1%
1+
0,
0-
0.
0/
00
11
02
0:
0<
1>
0A
1C
#4640000
0!

#4650000
1!
0%
1'
0(
0)
0+
1.
08
09
1:
0=
0?
#4660000
0!

#4670000
1!
0$
1%
1(
1*
1-
10
12
07
0:
1<
0>
1?
1@
1A
1B
0C
#4680000
0!

#4690000
1!
0%
1&
0'
1)
1+
0-
0.
1/
00
06
18
1=
1>
0A
0B
#4700000
0!

#4710000
1!
0&
1'
0(
0)
0*
0+
1,
1-
10
02
05
16
19
0=
0?
1B
#4720000
0!

#4730000
1!
0'
1+
0-
1.
0/
06
1:
0;
0>
0@
0B
#4740000
0!

#4750000
1!
1*
0+
0,
1-
13
14
15
16
0<
1=
1>
1@
1C
#4760000
0!

#4770000
1!
1'
1+
0-
12
06
1;
1A
0C
#4780000
0!

#4790000
1!
1&
0+
1,
1-
0.
00
05
16
17
08
09
1<
0=
0>
0@
0A
1C
#4800000
0!

#4810000
1!
1%
0&
1(
1)
1+
0,
10
01
02
06
18
19
0:
0;
0<
1=
1>
#4820000
0!

#4830000
1!
1$
0%
0(
0*
1,
1/
07
09
1:
1;
1<
0=
0>
1@
0C
#4840000
0!

#4850000
1!
1%
0)
1*
0,
0-
11
12
08
0:
1=
1>
1?
1A
#4860000
0!

#4870000
1!
0"
0#
0$
0%
1.
0/
0;
0<
0>
0A
1C
#4880000
0!

#4890000
1!
1%
0+
0.
1/
01
19
1:
1<
0?
0@
1A
1B
0C
#4900000
0!

#4910000
1!
1$
0%
0'
1(
1+
1,
1-
0/
11
02
17
0:
1@
0A
0B
#4920000
0!

#4930000
1!
1&
1'
1)
0*
0+
0-
1.
1/
00
12
16
07
18
09
1;
0=
0@
1B
#4940000
0!

#4950000
1!
1%
0'
0(
0)
1+
1-
0.
01
02
15
06
08
1:
1>
1?
1A
#4960000
0!

#4970000
1!
1'
1(
0+
0-
1.
10
12
16
0:
0A
#4980000
0!

#4990000
1!
1#
0$
0%
0&
0'
0(
0,
0.
0/
00
02
03
04
05
06
0>
0B
1C
#5000000
0!

#5010000
1!
0#
1$
1%
1&
1'
1)
1*
1+
1.
16
0<
1=
1@
1A
1B
0C
